Stars_dataset
…
glance(lm_fit)

## # A tibble: 1 x 12
##   r.squared adj.r.squared sigma statistic p.value    df logLik   AIC   BIC
##       <dbl>         <dbl> <dbl>     <dbl>   <dbl> <dbl>  <dbl> <dbl> <dbl>
## 1    0.0588        0.0114  10.8      1.24   0.257    12  -948. 1923. 1973.
## # … with 3 more variables: deviance <dbl>, df.residual <int>, nobs <int>

Evaluate test set accuracy

predict(lm_fit, new_data = test)

## # A tibble: 121 x 1
##    .pred
##    <dbl>
##  1  45.0
##  2  44.8
##  3  43.1
##  4  45.4
##  5  45.3
##  6  43.7
##  7  41.2
##  8  42.6
##  9  42.2
## 10  41.8
## # … with 111 more rows
…
